<COLLADA xmlns="http://www.collada.org/2008/03/COLLADASchema" version="1.5.0">
  <asset>
    <contributor>
      <author>Blender User</author>
      <authoring_tool>Blender 2.69.0 r60991</authoring_tool>
    </contributor>
    <created>2014-07-12T18:19:24</created>
    <modified>2014-07-12T18:19:24</modified>
    <unit meter="1" name="meter" />
    <up_axis>Z_UP</up_axis>
  </asset>
  <library_cameras>
    <camera id="Camera-camera" name="Camera">
      <optics>
        <technique_common>
          <perspective>
            <xfov sid="xfov">49.13434</xfov>
            <aspect_ratio>1.777778</aspect_ratio>
            <znear sid="znear">0.1</znear>
            <zfar sid="zfar">100</zfar>
          </perspective>
        </technique_common>
      </optics>
      <extra>
        <technique profile="blender">
          <YF_dofdist>0</YF_dofdist>
          <shiftx>0</shiftx>
          <shifty>0</shifty>
        </technique>
      </extra>
    </camera>
  </library_cameras>
  <library_lights>
    <light id="Lamp-light" name="Lamp">
      <technique_common>
        <point>
          <color sid="color">1 1 1</color>
          <constant_attenuation>1</constant_attenuation>
          <linear_attenuation>0</linear_attenuation>
          <quadratic_attenuation>0.00111109</quadratic_attenuation>
        </point>
      </technique_common>
      <extra>
        <technique profile="blender">
          <adapt_thresh>0.000999987</adapt_thresh>
          <area_shape>1</area_shape>
          <area_size>0.1</area_size>
          <area_sizey>0.1</area_sizey>
          <area_sizez>1</area_sizez>
          <atm_distance_factor>1</atm_distance_factor>
          <atm_extinction_factor>1</atm_extinction_factor>
          <atm_turbidity>2</atm_turbidity>
          <att1>0</att1>
          <att2>1</att2>
          <backscattered_light>1</backscattered_light>
          <bias>1</bias>
          <blue>1</blue>
          <buffers>1</buffers>
          <bufflag>0</bufflag>
          <bufsize>2880</bufsize>
          <buftype>2</buftype>
          <clipend>30.002</clipend>
          <clipsta>1.000799</clipsta>
          <compressthresh>0.04999995</compressthresh>
          <dist sid="blender_dist">29.99998</dist>
          <energy sid="blender_energy">1</energy>
          <falloff_type>2</falloff_type>
          <filtertype>0</filtertype>
          <flag>0</flag>
          <gamma sid="blender_gamma">1</gamma>
          <green>1</green>
          <halo_intensity sid="blnder_halo_intensity">1</halo_intensity>
          <horizon_brightness>1</horizon_brightness>
          <mode>8192</mode>
          <ray_samp>1</ray_samp>
          <ray_samp_method>1</ray_samp_method>
          <ray_samp_type>0</ray_samp_type>
          <ray_sampy>1</ray_sampy>
          <ray_sampz>1</ray_sampz>
          <red>1</red>
          <samp>3</samp>
          <shadhalostep>0</shadhalostep>
          <shadow_b sid="blender_shadow_b">0</shadow_b>
          <shadow_g sid="blender_shadow_g">0</shadow_g>
          <shadow_r sid="blender_shadow_r">0</shadow_r>
          <shadspotsize>45</shadspotsize>
          <sky_colorspace>0</sky_colorspace>
          <sky_exposure>1</sky_exposure>
          <skyblendfac>1</skyblendfac>
          <skyblendtype>1</skyblendtype>
          <soft>3</soft>
          <spotblend>0.15</spotblend>
          <spotsize>75</spotsize>
          <spread>1</spread>
          <sun_brightness>1</sun_brightness>
          <sun_effect_type>0</sun_effect_type>
          <sun_intensity>1</sun_intensity>
          <sun_size>1</sun_size>
          <type>0</type>
        </technique>
      </extra>
    </light>
  </library_lights>
  <library_images />
  <library_effects>
    <effect id="Material-effect">
      <profile_COMMON>
        <technique sid="common">
          <phong>
            <emission>
              <color sid="emission">0 0 0 1</color>
            </emission>
            <ambient>
              <color sid="ambient">0 0 0 1</color>
            </ambient>
            <diffuse>
              <color sid="diffuse">0.64 0.64 0.64 1</color>
            </diffuse>
            <specular>
              <color sid="specular">0.5 0.5 0.5 1</color>
            </specular>
            <shininess>
              <float sid="shininess">50</float>
            </shininess>
            <index_of_refraction>
              <float sid="index_of_refraction">1</float>
            </index_of_refraction>
          </phong>
        </technique>
        <extra>
          <technique profile="GOOGLEEARTH">
            <double_sided>1</double_sided>
          </technique>
        </extra>
      </profile_COMMON>
      <extra><technique profile="MAX3D"><double_sided>1</double_sided></technique></extra>
    </effect>
  </library_effects>
  <library_materials>
    <material id="Material-material" name="Material">
      <instance_effect url="#Material-effect" />
    </material>
  </library_materials>
  <library_geometries>
    <geometry id="Cube-mesh" name="Cube">
      <mesh>
        <source id="Cube-mesh-positions">
          <float_array count="267" id="Cube-mesh-positions-array">1 1 -1 1 -1 -1 -1 -0.9999998 -1 -0.9999997 1 -1 1 0.9999995 1 0.9999994 -1.000001 1 -1 -0.9999997 1 -1 1 1 1 0 -1 1.78814e-7 1 -1 1 0.9999997 0 0 -0.9999999 -1 0.9999997 -1 0 -0.9999999 2.98023e-7 -1 -1 -0.9999998 0 -0.9999998 1 0 0.9999999 -5.36442e-7 1 -1 1.78814e-7 1 0 1.19209e-7 -1 1 -2.98023e-7 0 -1 2.38419e-7 0 1 -0.5 -1 -0.879083 1 -1 1 0.9999996 0.5 -0.8790834 -0.9999999 -1 0.9999995 -1 0.5 -0.9999998 0.5000003 -1 -1 -0.9999997 0.5 -0.9999999 1 0.5 0.9999997 -0.5000005 1 -0.8790832 0.9999999 1 -0.8790838 -0.9999999 1 -1 0.5000001 1 1 0.5 -1 0.8649658 1 -1 1 0.9999998 -0.8532025 0.8649657 -1 -1 0.9999998 -1 -0.8532025 -1 -0.4999998 -1 -1 -0.9999998 -0.8532025 -0.9999997 1 -0.8532025 1 0.4999995 1 0.864966 0.9999997 1 0.8649651 -1 1 -1 -0.4999997 1 -0.8790833 2.08616e-7 -1 0.8649657 0 -1 1.19209e-7 0.5000001 -1 0 -0.4999999 -1 0.8649656 -3.57628e-7 1 -0.8790835 0 1 0.9999998 -0.5000002 0 1 0.4999997 0 1 -1.78814e-7 -0.8532025 0.9999999 -4.17232e-7 0.5 -0.8790836 -0.9999999 0 0.8649654 -1 0 -1.49012e-7 -1 -0.8532025 -0.9999999 0.5000002 0 -1 -0.4999998 0 -1 2.68221e-7 -0.8532025 -1 2.08616e-7 0.5 -0.8790831 1 0 0.8649659 0.9999999 0 2.08616e-7 1 -0.8532025 -0.8790833 -0.4999998 -1 -0.8790836 -0.5 1 0.9999997 -0.5000004 0.5 -0.8790837 -0.9999999 0.5 -1 0.5000001 0.5 -0.879083 1 -0.8532025 -0.8790832 0.5000002 -1 0.8649658 0.5 -1 0.8649657 -0.5 -1 0.8649653 -0.5000004 1 0.8649658 0.4999997 1 -0.8790833 0.5 1 0.9999999 -0.5000001 -0.8532025 1 0.4999998 -0.8532025 1 0.4999996 0.5 -0.8790836 -0.9999999 -0.8532025 0.8649656 -1 -0.8532025 0.8649653 -1 0.5 -0.9999998 0.5000002 -0.8532025 -1 -0.4999998 -0.8532025 -1 -0.4999998 0.5 -0.8790832 1 0.5 0.864966 0.9999998 0.5 0.8649659 0.9999999 -0.8532025</float_array>
          <technique_common>
            <accessor count="89" source="#Cube-mesh-positions-array" stride="3">
              <param name="X" type="float" />
              <param name="Y" type="float" />
              <param name="Z" type="float" />
            </accessor>
          </technique_common>
        </source>
        <source id="Cube-mesh-normals">
          <float_array count="522" id="Cube-mesh-normals-array">0 0 -1 0 0 1 1 -3.57628e-7 0 -1.47882e-6 -1 0 -1 1.19209e-7 -1.19209e-7 9.8588e-7 1 8.12066e-7 0 0 -1 0 0 -1 0 0 -1 0 0 1 1 -1.19209e-7 1.3972e-7 1 0 -1.3972e-7 1 -4.76837e-7 -2.38419e-7 -9.8588e-7 -1 0 -1 2.38419e-7 0 -1 3.57628e-7 0 -1 2.38419e-7 -2.38419e-7 9.85879e-7 1 2.38419e-7 1.3782e-7 1 8.12066e-7 0 0 -1 0 0 -1 0 0 -1 0 0 1 1 -2.38419e-7 0 1 -3.57628e-7 0 1 -3.57628e-7 0 -9.8588e-7 -1 0 -1 2.38419e-7 0 -1 2.38419e-7 0 -1 1.19209e-7 -2.38419e-7 9.8588e-7 1 0 1.35606e-7 1 8.12066e-7 0 0 -1 0 0 -1 0 0 -1 0 0 -1 0 0 -1 0 0 -1 0 0 -1 0 0 -1 0 0 -1 0 0 1 0 0 1 0 0 1 0 0 1 0 0 1 1 0 8.12066e-7 1 0 0 1 -2.38419e-7 0 1 0 0 1 0 -8.12066e-7 1 -2.38419e-7 -1.3972e-7 1 -3.57628e-7 0 1 -2.38419e-7 -2.38419e-7 1 -4.76837e-7 -2.38419e-7 -9.8588e-7 -1 0 0 -1 -4.06033e-7 0 -1 -4.06033e-7 -8.82808e-7 -1 -8.12067e-7 -8.82808e-7 -1 -1.3972e-7 -8.82808e-7 -1 -4.76837e-7 -1.76562e-6 -1 -2.38419e-7 -1 2.38419e-7 -4.06033e-7 -1 2.38419e-7 -4.06033e-7 -1 2.38419e-7 0 -1 2.38419e-7 -8.12066e-7 -1 2.38419e-7 -8.12066e-7 -1 2.38419e-7 0 -1 2.38419e-7 0 -1 2.38419e-7 0 -1 2.38419e-7 -2.38419e-7 9.85879e-7 1 2.38419e-7 1.32421e-6 1 2.38418e-7 1.32421e-6 1 2.38418e-7 1 -3.57628e-7 2.38419e-7 1.32421e-6 1 1.3972e-7 4.41404e-7 1 8.12066e-7 0 0 1 -1 4.76837e-7 -3.57628e-7 0 0 -1 0 0 1 1 -5.96046e-7 3.57628e-7 -1.97176e-6 -1 0 -1 1.19209e-7 0 9.8588e-7 1 8.12066e-7 0 0 -1 0 0 -1 0 0 -1 0 0 1 1 -2.38419e-7 2.0958e-7 1 -3.57628e-7 0 1 -7.15256e-7 0 -9.8588e-7 -1 0 -1 2.38419e-7 0 -1 2.38419e-7 0 -1 2.38419e-7 -2.38419e-7 9.8588e-7 1 2.38419e-7 1.3782e-7 1 8.12066e-7 0 0 -1 0 0 -1 0 0 -1 0 0 1 1 -3.57628e-7 2.38418e-7 1 -3.57628e-7 0 1 -4.76837e-7 0 -1.47882e-6 -1 0 -1 1.19209e-7 -2.38419e-7 -1 1.19209e-7 0 -1 2.38419e-7 -1.19209e-7 9.8588e-7 1 0 1.35606e-7 1 8.12066e-7 0 0 -1 0 0 -1 0 0 -1 0 0 -1 0 0 -1 0 0 -1 0 0 -1 0 0 -1 0 0 -1 0 0 1 0 0 1 0 0 1 0 0 1 0 0 1 1 -1.19209e-7 1.2181e-6 1 -2.38419e-7 8.12066e-7 1 -3.57628e-7 1.3972e-7 1 0 0 1 -2.38419e-7 0 1 -2.38419e-7 -1.3972e-7 1 -4.76837e-7 0 1 -4.76837e-7 0 1 -4.76837e-7 -2.38419e-7 -4.9294e-7 -1 4.06033e-7 0 -1 0 0 -1 -4.06033e-7 -4.41404e-7 -1 -4.06033e-7 -8.82808e-7 -1 -1.3972e-7 -1.76562e-6 -1 -2.38419e-7 -1.76562e-6 -1 -2.38419e-7 -1 2.38419e-7 -4.06033e-7 -1 2.38419e-7 -4.06033e-7 -1 2.38419e-7 0 -1 3.57628e-7 -4.06033e-7 -1 2.38419e-7 -8.12066e-7 -1 2.38419e-7 0 -1 2.38419e-7 0 -1 2.38419e-7 0 -1 2.38419e-7 -2.38419e-7 9.85879e-7 1 2.38419e-7 1.32421e-6 1 2.38419e-7 1.32421e-6 1 2.38418e-7 1 -2.38419e-7 0 1 -2.68221e-7 0 1 -2.38419e-7 0 1 -2.38419e-7 0 1 -2.38419e-7 0 1 -3.57628e-7 2.38419e-7 1 -3.57628e-7 2.38419e-7 1 -2.38419e-7 1.19209e-7 4.41404e-7 1 0 4.41404e-7 1 8.12066e-7 0 0 1 0 0 1 0 0 1 -1 4.76837e-7 0 -1 1.78814e-7 -2.0958e-7 -1 2.68221e-7 0 -1 4.76837e-7 -3.57628e-7 -1 4.76837e-7 0 -1 3.8743e-7 -1.78814e-7 -1 2.68221e-7 -2.38419e-7 -1 3.8743e-7 2.38419e-7</float_array>
          <technique_common>
            <accessor count="174" source="#Cube-mesh-normals-array" stride="3">
              <param name="X" type="float" />
              <param name="Y" type="float" />
              <param name="Z" type="float" />
            </accessor>
          </technique_common>
        </source>
        <vertices id="Cube-mesh-vertices">
          <input semantic="POSITION" source="#Cube-mesh-positions" />
        </vertices>
        <polylist count="174" material="Material-material">
          <input offset="0" semantic="VERTEX" source="#Cube-mesh-vertices" />
          <input offset="1" semantic="NORMAL" source="#Cube-mesh-normals" />
          <vcount>3 3 3 3 3 3 3 3 3 3 3 3 3 3 3 3 3 3 3 3 3 3 3 3 3 3 3 3 3 3 3 3 3 3 3 3 3 3 3 3 3 3 3 3 3 3 3 3 3 3 3 3 3 3 3 3 3 3 3 3 3 3 3 3 3 3 3 3 3 3 3 3 3 3 3 3 3 3 3 3 3 3 3 3 3 3 3 3 3 3 3 3 3 3 3 3 3 3 3 3 3 3 3 3 3 3 3 3 3 3 3 3 3 3 3 3 3 3 3 3 3 3 3 3 3 3 3 3 3 3 3 3 3 3 3 3 3 3 3 3 3 3 3 3 3 3 3 3 3 3 3 3 3 3 3 3 3 3 3 3 3 3 3 3 3 3 3 3 3 3 3 3 3 3 </vcount>
          <p>65 0 24 0 38 0 66 1 44 1 31 1 67 2 29 2 25 2 68 3 31 3 27 3 69 4 32 4 28 4 70 5 22 5 40 5 71 6 45 6 26 6 72 7 46 7 47 7 73 8 36 8 48 8 76 9 32 9 50 9 77 10 51 10 37 10 78 11 52 11 53 11 79 12 41 12 54 12 80 13 55 13 39 13 83 14 58 14 40 14 84 15 59 15 60 15 85 16 44 16 61 16 86 17 62 17 28 17 88 18 34 18 64 18 45 19 65 19 13 19 18 20 48 20 45 20 48 21 11 21 65 21 50 22 17 22 66 22 51 23 67 23 12 23 19 24 54 24 51 24 54 25 16 25 67 25 55 26 68 26 14 26 58 27 69 27 15 27 20 28 61 28 58 28 61 29 17 29 69 29 62 30 70 30 15 30 64 31 9 31 70 31 22 32 71 32 3 32 9 33 47 33 22 33 47 34 18 34 71 34 34 35 72 35 9 35 0 36 33 36 34 36 33 37 8 37 72 37 46 38 73 38 18 38 8 39 21 39 46 39 21 40 1 40 73 40 29 41 74 41 5 41 16 42 49 42 29 42 41 43 75 43 16 43 4 44 42 44 41 44 30 45 7 45 76 45 21 46 77 46 1 46 8 47 53 47 21 47 53 48 19 48 77 48 33 49 78 49 8 49 0 50 35 50 33 50 35 51 10 51 78 51 52 52 79 52 19 52 10 53 23 53 52 53 23 54 4 54 79 54 24 55 80 55 39 55 11 56 57 56 24 56 36 57 81 57 11 57 1 58 37 58 81 58 37 59 12 59 81 59 12 60 25 60 56 60 25 61 5 61 82 61 26 62 83 62 3 62 13 63 60 63 26 63 60 64 20 64 83 64 38 65 84 65 13 65 2 66 39 66 38 66 39 67 14 67 84 67 59 68 85 68 20 68 14 69 27 69 59 69 27 70 6 70 85 70 30 71 86 71 7 71 4 72 23 72 42 72 23 73 10 73 87 73 66 74 31 74 68 74 10 75 35 75 63 75 35 76 0 76 34 76 70 77 80 77 57 77 43 78 74 78 82 78 24 79 2 79 38 79 44 80 6 80 31 80 29 81 5 81 25 81 31 82 6 82 27 82 32 83 7 83 28 83 22 84 3 84 40 84 45 85 13 85 26 85 46 86 18 86 47 86 36 87 11 87 48 87 32 88 17 88 50 88 51 89 12 89 37 89 52 90 19 90 53 90 41 91 16 91 54 91 55 92 14 92 39 92 58 93 15 93 40 93 59 94 20 94 60 94 44 95 17 95 61 95 62 96 15 96 28 96 34 97 9 97 64 97 65 98 38 98 13 98 48 99 65 99 45 99 11 100 24 100 65 100 17 101 44 101 66 101 67 102 25 102 12 102 54 103 67 103 51 103 16 104 29 104 67 104 68 105 27 105 14 105 69 106 28 106 15 106 61 107 69 107 58 107 17 108 32 108 69 108 70 109 40 109 15 109 9 110 22 110 70 110 71 111 26 111 3 111 47 112 71 112 22 112 18 113 45 113 71 113 72 114 47 114 9 114 33 115 72 115 34 115 8 116 46 116 72 116 73 117 48 117 18 117 21 118 73 118 46 118 1 119 36 119 73 119 74 120 43 120 5 120 49 121 74 121 29 121 75 122 49 122 16 122 42 123 75 123 41 123 7 124 32 124 76 124 77 125 37 125 1 125 53 126 77 126 21 126 19 127 51 127 77 127 78 128 53 128 8 128 35 129 78 129 33 129 10 130 52 130 78 130 79 131 54 131 19 131 23 132 79 132 52 132 4 133 41 133 79 133 2 134 24 134 39 134 57 135 80 135 24 135 81 136 57 136 11 136 36 137 1 137 81 137 12 138 56 138 81 138 25 139 82 139 56 139 5 140 43 140 82 140 83 141 40 141 3 141 60 142 83 142 26 142 20 143 58 143 83 143 84 144 60 144 13 144 39 145 84 145 38 145 14 146 59 146 84 146 85 147 61 147 20 147 27 148 85 148 59 148 6 149 44 149 85 149 86 150 28 150 7 150 23 151 87 151 42 151 10 152 63 152 87 152 76 153 86 153 30 153 70 154 55 154 80 154 62 155 55 155 70 155 76 156 62 156 86 156 76 157 55 157 62 157 66 158 68 158 55 158 50 159 66 159 55 159 76 160 50 160 55 160 35 161 88 161 63 161 88 162 35 162 34 162 64 163 70 163 57 163 88 164 64 164 81 164 64 165 57 165 81 165 87 166 75 166 42 166 56 167 88 167 81 167 56 168 63 168 88 168 74 169 49 169 82 169 49 170 75 170 87 170 82 171 49 171 87 171 56 172 82 172 63 172 82 173 87 173 63 173</p>
        </polylist>
      </mesh>
      <extra><technique profile="MAYA"><double_sided>1</double_sided></technique></extra>
    </geometry>
  </library_geometries>
  <library_controllers />
  <library_visual_scenes>
    <visual_scene id="Scene" name="Scene">
      <node id="Camera" name="Camera" type="NODE">
        <matrix sid="transform">0.6858805 -0.3173701 0.6548619 7.481132 0.7276338 0.3124686 -0.6106656 -6.50764 -0.01081678 0.8953432 0.4452454 5.343665 0 0 0 1</matrix>
        <instance_camera url="#Camera-camera" />
      </node>
      <node id="Lamp" name="Lamp" type="NODE">
        <matrix sid="transform">-0.2908646 -0.7711008 0.5663932 4.076245 0.9551712 -0.1998834 0.2183912 1.005454 -0.05518906 0.6045247 0.7946723 5.903862 0 0 0 1</matrix>
        <instance_light url="#Lamp-light" />
      </node>
      <node id="Table" name="Table" type="NODE">
        <matrix sid="transform">1 0 0 0 0 1 0 0 0 0 1 0 0 0 0 1</matrix>
        <node id="root" name="root" sid="root" type="JOINT">
          <matrix sid="transform">1 0 0 0 0 1 0 0 0 0 1 0 0 0 0 1</matrix>
          <node id="Cube" name="Cube" type="NODE">
            <matrix>1.0 -0.0 0.0 -0.0 -0.0 1.0 -0.0 0.0 0.0 -0.0 1.0 -0.0 -0.0 0.0 -0.0 1.0</matrix><matrix sid="transform">-0.624976 -0.004319634 -6.07724e-7 -0.2272692 -0.005454084 0.4949809 -5.30353e-9 -0.1966462 8.3943e-7 -3.59856e-16 -0.4525 0.4589977 0 0 0 1</matrix>
            <instance_geometry url="#Cube-mesh">
              <bind_material>
                <technique_common>
                  <instance_material symbol="Material-material" target="#Material-material" />
                </technique_common>
              </bind_material>
            </instance_geometry>
          </node>
          <node id="MARKER_TableM1" name="MARKER_TableM1" type="NODE">
            <matrix sid="transform">1 0 0 0.3897 0 1 0 -0.6811 0 0 1 0.9223 0 0 0 1</matrix>
          </node>
          <node id="MARKER_TableM2" name="MARKER_TableM2" type="NODE">
            <matrix sid="transform">1 0 0 -0.848 0 1 0 0.288 0 0 1 0.926 0 0 0 1</matrix>
          </node>
          <node id="MARKER_TableM3" name="MARKER_TableM3" type="NODE">
            <matrix sid="transform">1 0 0 -0.841 0 1 0 -0.691 0 0 1 0.923 0 0 0 1</matrix>
          </node>
        </node>
      </node>
    </visual_scene>
  </library_visual_scenes>
  <library_kinematics_scenes><kinematics_scene id="Table_kinematics_scene"><instance_articulated_system sid="inst_Table_motion" url="#Table_motion"><bind symbol="Table_kinematics_scene@Table_motion@Table_kinematics@inst_Table_kinematics_model"><param ref="Table_motion/Table_motion@Table_kinematics@inst_Table_kinematics_model" /></bind><bind symbol="Table_kinematics_scene@Table_motion@Table_kinematics@inst_Table_kinematics_model@inst_root_joint@axis0"><param ref="Table_motion/Table_motion@Table_kinematics@inst_Table_kinematics_model@inst_root_joint@axis0" /></bind><bind symbol="Table_kinematics_scene@Table_motion@Table_kinematics@inst_Table_kinematics_model@inst_root_joint_value"><param ref="Table_motion/Table_motion@Table_kinematics@inst_Table_kinematics_model@inst_root_joint_value" /></bind></instance_articulated_system></kinematics_scene></library_kinematics_scenes><library_kinematics_models><kinematics_model id="Table_kinematics_model"><technique_common><instance_joint sid="inst_root_joint" url="#root_joint" /><link name="Table_root_link" sid="Table_root_link"><attachment_full joint="Table_kinematics_model/inst_root_joint"><translate>0 0 0.0</translate><translate>0.0 0 0</translate><rotate>1 0 0 0.0</rotate><rotate>0 0 1 0.0</rotate><link name="root_link" sid="root_link" /></attachment_full></link></technique_common></kinematics_model></library_kinematics_models><library_articulated_systems><articulated_system id="Table_kinematics"><kinematics><instance_kinematics_model sid="inst_Table_kinematics_model" url="#Table_kinematics_model"><newparam sid="Table_kinematics@inst_Table_kinematics_model"><SIDREF>Table_kinematics/inst_Table_kinematics_model</SIDREF></newparam><newparam sid="Table_kinematics@inst_Table_kinematics_model@inst_root_joint@axis0"><SIDREF>Table_kinematics/inst_Table_kinematics_model/inst_root_joint/axis0</SIDREF></newparam><newparam sid="Table_kinematics@inst_Table_kinematics_model@inst_root_joint_value"><float>0.0</float></newparam></instance_kinematics_model><technique_common><axis_info axis="Table_kinematics_model/inst_root_joint/axis0" sid="inst_root_joint_info"><active><bool>True</bool></active><locked><bool>False</bool></locked><limits><min><float>-360.0</float></min><max><float>360.0</float></max></limits></axis_info></technique_common></kinematics></articulated_system><articulated_system id="Table_motion"><motion><instance_articulated_system sid="inst_Table_kinematics" url="#Table_kinematics"><newparam sid="Table_motion@Table_kinematics@inst_Table_kinematics_model"><SIDREF>Table_kinematics/Table_kinematics@inst_Table_kinematics_model</SIDREF></newparam><newparam sid="Table_motion@Table_kinematics@inst_Table_kinematics_model@inst_root_joint@axis0"><SIDREF>Table_kinematics/Table_kinematics@inst_Table_kinematics_model@inst_root_joint@axis0</SIDREF></newparam><newparam sid="Table_motion@Table_kinematics@inst_Table_kinematics_model@inst_root_joint_value"><SIDREF>Table_kinematics/Table_kinematics@inst_Table_kinematics_model@inst_root_joint_value</SIDREF></newparam></instance_articulated_system><technique_common><axis_info axis="Table_kinematics/inst_root_joint_info"><speed><float>0.0</float></speed><acceleration><float>0.0</float></acceleration><deceleration><float>0.0</float></deceleration><jerk><float>0.0</float></jerk></axis_info></technique_common></motion><extra type="manipulator"><technique profile="OpenRAVE"><frame_origin link="Table_kinematics_model/Table_root_link" /></technique></extra><extra name="MARKER_TableM1" type="attach_sensor"><technique profile="OpenRAVE"><frame_origin link="Table_kinematics_model/root_link"><translate>0.3896999955177307 -0.6811000108718872 0.9222999811172485</translate></frame_origin><instance_sensor url="sensors.dae#Vicon" /></technique></extra><extra name="MARKER_TableM2" type="attach_sensor"><technique profile="OpenRAVE"><frame_origin link="Table_kinematics_model/root_link"><translate>-0.8479999899864197 0.2879999876022339 0.9259999990463257</translate></frame_origin><instance_sensor url="sensors.dae#Vicon" /></technique></extra><extra name="MARKER_TableM3" type="attach_sensor"><technique profile="OpenRAVE"><frame_origin link="Table_kinematics_model/root_link"><translate>-0.8410000205039978 -0.6909999847412109 0.9229999780654907</translate></frame_origin><instance_sensor url="sensors.dae#Vicon" /></technique></extra></articulated_system></library_articulated_systems><library_joints><joint id="root_joint" name="root_joint"><revolute sid="axis0"><axis>0 0 1</axis></revolute></joint></library_joints><scene>
    <instance_visual_scene url="#Scene" />
  <instance_kinematics_scene sid="inst_Table_kinematics_scene" url="#Table_kinematics_scene"><bind_kinematics_model node="Table"><param>Table_kinematics_scene@Table_motion@Table_kinematics@inst_Table_kinematics_model</param></bind_kinematics_model><bind_joint_axis target="root/transform"><axis><param>Table_kinematics_scene@Table_motion@Table_kinematics@inst_Table_kinematics_model@inst_root_joint@axis0</param></axis><value><param>Table_kinematics_scene@Table_motion@Table_kinematics@inst_Table_kinematics_model@inst_root_joint_value</param></value></bind_joint_axis></instance_kinematics_scene></scene>
</COLLADA>